[
		{
            "type": "global",
            "data":{
                "rootnote": 2
            }
        },
        {
            "type": "router",
            "data":{
                "lower": [1, 1, 1, 1, 1, 1, 0, 0, 0],
                "upper": [1, 1, 1, 1, 1, 1, 1, 1, 1]
            }
        },
        {
            "id": 0,
            "type": "sequencer",
            "data": {
                "transpose": [0],
                "division": [0],
                "step": [5],
                "sequence": [55, 33, 44, 122, 55, 33, 44, 22, 55, 33, 44, 22, 55, 33, 44, 22]
            }
        },
        {
            "id": 1,
            "type": "sequencer",
            "data": {
                "transpose": [1],
                "division": [4],
                "step": [2],
                "sequence" :[55, 33, 44, 22, 55, 33, 44, 22, 55, 33, 44, 22, 55, 33, 44, 22]
            }
        },
        {
            "id": 2,
            "type": "sequencer",
            "data": {
                "transpose": [2],
                "division": [6],
                "step": [4],
                "notes" :[55, 33, 44, 22, 55, 33, 44, 22, 55, 33, 44, 22, 55, 33, 44, 22]
            }
        },
        {
            "id": 3,
            "type": "sequencer",
            "data": {
                "transpose": [3],
                "division": [8],
                "step": [3],
                "notes" :[55, 33, 44, 122, 55, 33, 44, 22, 55, 33, 44, 22, 55, 33, 44, 22]
            }
        },
        {
            "id": 4,
            "type": "sequencer",
            "data": {
                "notes" :[55, 33, 44, 122, 55, 33, 44, 122, 55, 33, 44, 22, 55, 33, 44, 22],
                "enable" :[0, 0, 1, 1, 1, 1, 0, 0, 1, 1, 0, 0, 1, 1, 0, 0, 1, 1, 0, 0],
                "steps" :[1, 1, 0, 0, 1, 1, 0, 0, 1, 1, 0, 0, 1, 1, 0, 0, 1, 1, 0, 0],
                "pattern" :[1, 1, 0, 0, 1, 1, 0, 0, 1, 1, 0, 0, 1, 1, 0, 0, 1, 1, 0, 0]
            }
        },
        {
            "id": 5,
            "type": "sequencer",
            "data": {
                "notes" :[55, 33, 44, 122, 55, 33, 44, 22, 55, 33, 44, 122, 55, 33, 44, 22],
                "enable" :[1, 0, 0, 0, 1, 1, 0, 0, 1, 1, 0, 0, 1, 1, 0, 0, 1, 1, 0, 0],
                "steps" :[1, 3, 0, 0, 1, 1, 2, 0, 1, 1, 0, 2, 1, 2, 0, 0, 1, 1, 0, 0],
                "pattern" :[1, 1, 0, 0, 1, 1, 0, 0, 1, 1, 0, 0, 1, 1, 0, 0, 1, 1, 0, 0]
            }
        }
]